Rstudio in Data Science and Paper Writing - Day 1
…
list.files("../analysis/data")

[1] "24_01_22qpcr_1 - ash pal.xlsx"                 
[2] "240323 CIN Exp278 reporter assay - Anchel.xlsx"
[3] "a-Syn-Data.csv"                                
[4] "data - José - March 2024.xlsx"                 
[5] "head_celltypes_syn_matrix.csv"                 
[6] "Key_resource_table.xls"                        
[7] "Key_resource_table.xlsx"                       
[8] "Tom_filopodia_analyses.csv"                    
[9] "Tom_filopodia_analyses.csv~"                   

readxl::read_excel("../analysis/data/data - José - March 2024.xlsx")

# A tibble: 692 × 3
   Treatment genotype       length
   <chr>     <chr>           <dbl>
 1 Control   CLE25_OE_1.1#2   2.19
 2 Control   CLE25_OE_1.1#2   2.62
 3 Control   CLE25_OE_1.1#2   2.67
 4 Control   CLE25_OE_1.1#2   2.28
 5 Control   CLE25_OE_1.1#2   2.21
 6 Control   CLE25_OE_1.1#2   2.83
 7 Control   CLE25_OE_1.1#2   2.13
 8 Control   CLE25_OE_1.1#2   2.76
 9 Control   CLE25_OE_1.1#2   2.88
10 Control   CLE25_OE_1.1#2   2.95
# ℹ 682 more rows
…
Select only relevant columns and clean up names…

# A tibble: 105 × 6
   gene  days  raw_data ct_value           dt_ct  x2_dct
   <chr> <chr> <chr>    <chr>              <dbl>   <dbl>
 1 Nanog d0    J1       22.491              6.96 0.00805
 2 Nanog d0    J2       19.876999999999999  4.40 0.0475 
 3 Nanog d0    J3       19.164000000000001  2.42 0.187  
 4 Nanog d7    J4       21.177              4.67 0.0393 
 5 Nanog d7    J5       21.812000000000001  4.93 0.0327 
 6 Nanog d7    J6       22.303000000000001  5.40 0.0237 
 7 Nanog d11   J7       22.93               7.44 0.00577
 8 Nanog d11   J8       22.914999999999999  7.41 0.00587
 9 Nanog d11   J9       17.831              1.24 0.424  
10 Nanog d15   J10      15.848000000000001  1.25 0.420  
# ℹ 95 more rows

Add mean and SD columns with group_by() and mutate()

data_Ashwini_sel_M_SD <- data_Ashwini_sel %>%
  group_by(gene) %>%
  mutate(mean2dct = mean(x2_dct)) %>%
  mutate(sd2dct = sd(x2_dct))
data_Ashwini_sel_M_SD

# A tibble: 105 × 8
# Groups:   gene [7]
   gene  days  raw_data ct_value           dt_ct  x2_dct mean2dct sd2dct
   <chr> <chr> <chr>    <chr>              <dbl>   <dbl>    <dbl>  <dbl>
 1 Nanog d0    J1       22.491              6.96 0.00805   0.0909  0.141
 2 Nanog d0    J2       19.876999999999999  4.40 0.0475    0.0909  0.141
 3 Nanog d0    J3       19.164000000000001  2.42 0.187     0.0909  0.141
 4 Nanog d7    J4       21.177              4.67 0.0393    0.0909  0.141
 5 Nanog d7    J5       21.812000000000001  4.93 0.0327    0.0909  0.141
 6 Nanog d7    J6       22.303000000000001  5.40 0.0237    0.0909  0.141
 7 Nanog d11   J7       22.93               7.44 0.00577   0.0909  0.141
 8 Nanog d11   J8       22.914999999999999  7.41 0.00587   0.0909  0.141
 9 Nanog d11   J9       17.831              1.24 0.424     0.0909  0.141
10 Nanog d15   J10      15.848000000000001  1.25 0.420     0.0909  0.141
# ℹ 95 more rows

Change data type…

data_Ashwini_sel_M_SD <- data_Ashwini_sel_M_SD %>%
  mutate(ct_value = as.double(ct_value))
data_Ashwini_sel_M_SD

# A tibble: 105 × 8
# Groups:   gene [7]
   gene  days  raw_data ct_value dt_ct  x2_dct mean2dct sd2dct
   <chr> <chr> <chr>       <dbl> <dbl>   <dbl>    <dbl>  <dbl>
 1 Nanog d0    J1           22.5  6.96 0.00805   0.0909  0.141
 2 Nanog d0    J2           19.9  4.40 0.0475    0.0909  0.141
 3 Nanog d0    J3           19.2  2.42 0.187     0.0909  0.141
 4 Nanog d7    J4           21.2  4.67 0.0393    0.0909  0.141
 5 Nanog d7    J5           21.8  4.93 0.0327    0.0909  0.141
 6 Nanog d7    J6           22.3  5.40 0.0237    0.0909  0.141
 7 Nanog d11   J7           22.9  7.44 0.00577   0.0909  0.141
 8 Nanog d11   J8           22.9  7.41 0.00587   0.0909  0.141
 9 Nanog d11   J9           17.8  1.24 0.424     0.0909  0.141
10 Nanog d15   J10          15.8  1.25 0.420     0.0909  0.141
# ℹ 95 more rows

Pivoting

Tidying messy data is hard and requires parctice

Read more here: https://r4ds.had.co.nz/tibbles.html

data_Syn <- read_csv("../analysis/data/a-Syn-Data.csv")
data_Syn

# A tibble: 368 × 13
    Time aSyn...2 aSyn...3 aSyn...4 `aSyn-DMSO...5` `aSyn-DMSO...6`
   <dbl>    <dbl>    <dbl>    <dbl>           <dbl>           <dbl>
 1 0         655.     639.     687.            265.            381.
 2 0.264    1151.    1006.     863.            793.            860.
 3 0.527    1173     1104     1082             910.           1222.
 4 0.791    2542.    2191.    2451.           1062            1273 
 5 1.05     3922     3573     3790            1284            1385 
 6 1.32     4716.    4638.    4670.           2456.           2869.
 7 1.58     5322.    5424.    5323.           2955.           3986.
 8 1.85     5813     6041     5794            3661            4463 
 9 2.11     5983.    6325.    6227.           4345.           5133.
10 2.37     6147.    6584.    6351.           4369.           5363.
# ℹ 358 more rows
# ℹ 7 more variables: `aSyn-DMSO...7` <dbl>, aSyn_D2_13uM...8 <dbl>,
#   aSyn_D2_13uM...9 <dbl>, aSyn_D2_13uM...10 <dbl>, aSyn_D3_0.67mM...11 <dbl>,
#   aSyn_D3_0.67mM...12 <dbl>, aSyn_D3_0.67mM...13 <dbl>

# rename
data_Syn_clean <- data_Syn  %>%
  rename_with(~ gsub("_", "-", .x, fixed = TRUE)) %>%
  rename_with(~ gsub("...", "_", .x, fixed = TRUE))

tb_syn <- data_Syn_clean |>
  pivot_longer(matches("aSyn"), 
               names_to = c("condition", "sample"), 
               names_sep = "_",
               values_to = "fluorescence")
 tb_syn

# A tibble: 4,416 × 4
    Time condition      sample fluorescence
   <dbl> <chr>          <chr>         <dbl>
 1     0 aSyn           2              655.
 2     0 aSyn           3              639.
 3     0 aSyn           4              687.
 4     0 aSyn-DMSO      5              265.
 5     0 aSyn-DMSO      6              381.
 6     0 aSyn-DMSO      7              424.
 7     0 aSyn-D2-13uM   8              436 
 8     0 aSyn-D2-13uM   9              461 
 9     0 aSyn-D2-13uM   10             672 
10     0 aSyn-D3-0.67mM 11             572.
# ℹ 4,406 more rows
…
Save tidy data as source data for the plot/figure/paper

write_csv2(data_Ashwini_sel_M_SD, "../manuscript/source_data/FigureX_Ashwini_source_data.csv")
# check
read_csv2("../manuscript/source_data/data_Ashwini_sel_M_SD.csv")

# A tibble: 105 × 1
   `gene,days,raw_data,ct_value,dt_ct,x2_dct,mean2dct,sd2dct`                   
   <chr>                                                                        
 1 Nanog,d0,J1,22.491,6.9559999999999995,0.008054439990584293,0.090867588244444…
 2 Nanog,d0,J2,19.877,4.395999999999999,0.0474976517625474,0.09086758824444471,…
 3 Nanog,d0,J3,19.164,2.418000000000003,0.18711537334908607,0.09086758824444471…
 4 Nanog,d7,J4,21.177,4.667999999999999,0.039336161672026825,0.0908675882444447…
 5 Nanog,d7,J5,21.812,4.934000000000001,0.03271282131170547,0.09086758824444471…
 6 Nanog,d7,J6,22.303,5.397000000000002,0.023732370153351993,0.0908675882444447…
 7 Nanog,d11,J7,22.93,7.436,0.005774853247163447,0.09086758824444471,0.14124081…
 8 Nanog,d11,J8,22.915,7.4129999999999985,0.00586765596461301,0.090867588244444…
 9 Nanog,d11,J9,17.831,1.2369999999999983,0.4242539508529486,0.0908675882444447…
10 Nanog,d15,J10,15.848,1.2520000000000007,0.41986574647207,0.09086758824444471…
# ℹ 95 more rows
…
